{
  "filename": "adorable-sea-otters",
  "title": "Otterly Adorable Recovery",
  "description": "Discover the remarkable rebound of sea otters and their critical role in kelp forest ecosystems.",
  "categories": [
    "Wildlife",
    "Conservation",
    "Marine Biology"
  ],
  "keywords": [
    "sea otters",
    "kelp forests",
    "keystone species",
    "ecosystem",
    "marine life",
    "conservation efforts",
    "urchin barrens",
    "biodiversity",
    "endangered species"
  ],
  "featuredImageName": "the_rebound_of_the_sea_otter_-_alaska_magazine.jpeg",
  "coords": {
    "hash": "5e691645ef7b9e09b9ee4512a9a4b7331591b11866d71b253d15421c33dfc207",
    "emlname": "original-emails\\Daily Fun Fact From Flora #14 - otters.eml"
  }
}