{
  "filename": "explosive-elder-termites",
  "title": "Explosive Elder Termites",
  "description": "Unveiling the remarkable defense mechanism of elder termites.",
  "categories": [
    "Insects",
    "Entomology",
    "Nature",
    "Biology"
  ],
  "keywords": [
    "termites",
    "defense mechanism",
    "Neocapritermes taracua",
    "elderly workers",
    "crystal structures",
    "explosive behavior",
    "eusocial insects",
    "toxic backpacks",
    "self-sacrifice",
    "altruism"
  ],
  "featuredImageName": "c41a3103327b3f52.png",
  "coords": {
    "hash": "04a7a2dca0c6b37d7627c430939be5d5933546b97a4d1a1825208bba2d4edd4d",
    "emlname": "original-emails\\Daily Fun Fact From Flora #16 - old-lady-termites.eml"
  }
}