{
  "filename": "fungi-wonders-and-facts",
  "title": "Fungal Fascination",
  "description": "Explore the intriguing role fungi play in our ecosystems.",
  "categories": [
    "Nature",
    "Biology",
    "Fungi",
    "Ecosystems"
  ],
  "keywords": [
    "fungi",
    "ecosystems",
    "lignin",
    "decomposition",
    "Humungous Fungus",
    "opisthokonts",
    "multicellular",
    "photosynthesis",
    "heterotrophic",
    "root structures"
  ],
  "featuredImageName": "the_largest_living_organism_armillaria_ostoyae_covers_over_2385_acres_and_produces_honey_mushrooms_pictured_in_the_fall.jpeg",
  "coords": {
    "hash": "23ea441707dd7b15182b9f9810a81f0451955d36cf3b39da818ecd93ae4bdca1",
    "emlname": "original-emails\\Daily Fun Fact From Flora #40 - fungi.eml"
  }
}