{
  "filename": "golden-rice-and-food-security",
  "title": "Golden Rice: A Solution",
  "description": "Exploring the potential of Golden Rice in combating vitamin A deficiency.",
  "categories": [
    "Genetic Modification",
    "Food Security",
    "Health"
  ],
  "keywords": [
    "Golden Rice",
    "genetic modification",
    "vitamin A",
    "food security",
    "GMO",
    "beta-carotene",
    "malnutrition",
    "agriculture",
    "child health"
  ],
  "featuredImageName": "e4995018b9f47f2a.png",
  "coords": {
    "hash": "aca11230b95466d3379957183f21e3bd82ff3966f2067da50eddd3bcfe2197eb",
    "emlname": "original-emails\\Daily Fun Fact From Flora #46.eml"
  }
}