{
  "filename": "immune_system_values",
  "title": "Immune System Wonders",
  "description": "Exploring the amazing capabilities of our immune system.",
  "categories": [
    "Health",
    "Science",
    "Biology"
  ],
  "keywords": [
    "immune system",
    "lymphocytes",
    "antigens",
    "clonal selection",
    "pathogens",
    "stem cells",
    "infections",
    "health",
    "antibody formation",
    "recognition"
  ],
  "featuredImageName": "immune_system_gif_-_find_on_gifer.gif",
  "coords": {
    "hash": "0faaa0a79430313c1d930e4d648a18dc3c795b843a43965831853ff40d999eef",
    "emlname": "original-emails\\Fun Fact From Flora #67.eml"
  }
}