{
  "filename": "octopus-camouflage-facts",
  "title": "Octopus Camouflage Wonders",
  "description": "Explore the extraordinary camouflage abilities of octopuses and their unique vision.",
  "categories": [
    "Animals",
    "Marine Life",
    "Science"
  ],
  "keywords": [
    "octopus",
    "camouflage",
    "chromatophores",
    "color blind",
    "vision",
    "opsins",
    "sea creatures",
    "cephalopods",
    "color perception",
    "chromatic aberration"
  ],
  "featuredImageName": "octopus_camouflage_gif_woahdude.gif",
  "coords": {
    "hash": "aace24e6458d845db677c0f62bd3c814a8677bd439251842bc1153e5d024ee77",
    "emlname": "original-emails\\Daily Fun Fact From Flora #13 - octopus.eml"
  }
}