{
  "filename": "prion-diseases-what-you-need-to-know",
  "title": "Understanding Prion Diseases",
  "description": "Exploring the terrifying world of prions and their impact on health.",
  "categories": [
    "Health",
    "Science",
    "Disease Awareness"
  ],
  "keywords": [
    "prions",
    "kuru",
    "cannibalism",
    "neurodegenerative",
    "brain damage",
    "mad cow",
    "Creutzfeldt-Jakob",
    "proteins",
    "transmission",
    "untreatable"
  ],
  "featuredImageName": "10_of_the_strangest_medical_conditions_-_rarest_known_diseases.jpeg",
  "coords": {
    "hash": "239168e54d4eccf3910e4967e9fc538f812b99e6b0ec412459bf08b909353a68",
    "emlname": "original-emails\\Daily Fun Fact From Flora #09 - prions.eml"
  }
}